<?xml version="1.0" encoding="UTF-8" standalone="no"?>
<!-- Created with Inkscape (http://www.inkscape.org/) -->

<svg
   xmlns:dc="http://purl.org/dc/elements/1.1/"
   xmlns:cc="http://creativecommons.org/ns#"
   xmlns:rdf="http://www.w3.org/1999/02/22-rdf-syntax-ns#"
   xmlns:svg="http://www.w3.org/2000/svg"
   xmlns="http://www.w3.org/2000/svg"
   xmlns:sodipodi="http://sodipodi.sourceforge.net/DTD/sodipodi-0.dtd"
   xmlns:inkscape="http://www.inkscape.org/namespaces/inkscape"
   version="1.1"
   id="svg904"
   width="320"
   height="320"
   viewBox="0 0 320 320"
   sodipodi:docname="orbit.svg"
   inkscape:version="0.92.2 2405546, 2018-03-11"
   inkscape:export-filename="/mnt/files/files/temp/star.png"
   inkscape:export-xdpi="960"
   inkscape:export-ydpi="960">
  <metadata
     id="metadata910">
    <rdf:RDF>
      <cc:Work
         rdf:about="">
        <dc:format>image/svg+xml</dc:format>
        <dc:type
           rdf:resource="http://purl.org/dc/dcmitype/StillImage" />
        <dc:title></dc:title>
      </cc:Work>
    </rdf:RDF>
  </metadata>
  <defs
     id="defs908" />
  <sodipodi:namedview
     pagecolor="#ffffff"
     bordercolor="#666666"
     borderopacity="1"
     objecttolerance="10"
     gridtolerance="10"
     guidetolerance="10"
     inkscape:pageopacity="0"
     inkscape:pageshadow="2"
     inkscape:window-width="1366"
     inkscape:window-height="739"
     id="namedview906"
     showgrid="false"
     inkscape:zoom="1.1235185"
     inkscape:cx="25.167462"
     inkscape:cy="171.18096"
     inkscape:window-x="0"
     inkscape:window-y="29"
     inkscape:window-maximized="1"
     inkscape:current-layer="svg904" />
  <rect
     style="opacity:1;fill:#161d39;fill-opacity:1;stroke:none;stroke-width:2.0004251;stroke-linecap:square;stroke-linejoin:miter;stroke-miterlimit:4;stroke-dasharray:8.00170004, 8.00170003999999935;stroke-dashoffset:0;stroke-opacity:0.40869565"
     id="rect5976"
     width="320"
     height="320"
     x="0"
     y="-1.9984014e-14" />
  <path
     style="fill:#1b2646;stroke:none;stroke-width:1px;stroke-linecap:butt;stroke-linejoin:miter;stroke-opacity:1;fill-opacity:1"
     d="M 0 0 L 0 39.488281 C 45.93825 81.594241 101.1068 137.25503 142.41016 115.28516 C 201.69412 83.751135 209.10696 57.540874 191.94531 0 L 0 0 z "
     id="path5993" />
  <path
     style="fill:#1d284b;stroke:none;stroke-width:1px;stroke-linecap:butt;stroke-linejoin:miter;stroke-opacity:1;fill-opacity:1"
     d="M 313.80469 99.699219 C 279.02093 100.72712 307.72457 213.10873 274.13867 245.23438 C 255.30589 263.24834 233.09172 291.80877 221.68555 320 L 320 320 L 320 100.53711 C 317.73971 99.917051 315.67733 99.64388 313.80469 99.699219 z "
     id="path5995" />
  <path
     style="fill:#141b33;stroke:none;stroke-width:1px;stroke-linecap:butt;stroke-linejoin:miter;stroke-opacity:1;fill-opacity:1"
     d="M 0 173.72852 L 0 320 L 153.14062 320 C 123.7137 277.85038 61.882914 198.14336 0 173.72852 z "
     id="path5997" />
  <text
     xml:space="preserve"
     style="font-style:normal;font-weight:normal;font-size:15.09066391px;line-height:1.25;font-family:sans-serif;letter-spacing:0px;word-spacing:0px;fill:#868686;fill-opacity:1;stroke:none;stroke-width:0.37726662"
     x="159.59114"
     y="220.30716"
     id="text916"><tspan
       sodipodi:role="line"
       id="tspan914"
       x="159.59114"
       y="220.30716"
       style="font-style:normal;font-variant:normal;font-weight:300;font-stretch:normal;font-size:28.16923904px;font-family:Ubuntu;-inkscape-font-specification:'Ubuntu Light';text-align:center;text-anchor:middle;fill:#868686;fill-opacity:1;stroke-width:0.37726662">Орбита</tspan></text>
  <text
     xml:space="preserve"
     style="font-style:normal;font-weight:normal;font-size:15.09066391px;line-height:1.25;font-family:sans-serif;letter-spacing:0px;word-spacing:0px;fill:#ffffff;fill-opacity:1;stroke:none;stroke-width:0.37726662"
     x="157.43393"
     y="266.05789"
     id="text920"><tspan
       sodipodi:role="line"
       id="tspan918"
       x="157.43393"
       y="266.05789"
       style="font-style:normal;font-variant:normal;font-weight:normal;font-stretch:normal;font-size:48.2901268px;font-family:Ubuntu;-inkscape-font-specification:Ubuntu;text-align:center;text-anchor:middle;fill:#ffffff;fill-opacity:1;stroke-width:0.37726662">Orbit</tspan></text>
  <text
     xml:space="preserve"
     style="font-style:normal;font-weight:normal;font-size:15.09066391px;line-height:1.25;font-family:sans-serif;letter-spacing:0px;word-spacing:0px;fill:#868686;fill-opacity:1;stroke:none;stroke-width:0.37726662"
     x="159.14433"
     y="302.6434"
     id="text924"><tspan
       sodipodi:role="line"
       id="tspan922"
       x="159.14433"
       y="302.6434"
       style="font-style:normal;font-variant:normal;font-weight:300;font-stretch:normal;font-size:28.16923904px;font-family:Ubuntu;-inkscape-font-specification:'Ubuntu Light';text-align:center;text-anchor:middle;fill:#868686;fill-opacity:1;stroke-width:0.37726662">[Орбит]</tspan></text>
  <circle
     style="opacity:1;fill:none;fill-opacity:1;stroke:#5f5f5f;stroke-width:3;stroke-linecap:round;stroke-linejoin:round;stroke-miterlimit:4;stroke-dasharray:12,12;stroke-dashoffset:0;stroke-opacity:1"
     id="path6130"
     cx="0.78012764"
     cy="0.36871624"
     r="214.27881" />
  <g
     id="g5000"
     transform="matrix(0.738719,0,0,0.738719,-299.55684,-193.0944)">
    <path
       sodipodi:nodetypes="cccccscscccscccccccccccccccccccccccccccccccccc"
       inkscape:connector-curvature="0"
       id="path4992"
       d="m 337.36122,108.68644 c 5.48608,-12.461616 3.44024,-26.995615 20.25442,-32.329166 4.81976,22.363647 18.91793,18.064853 26.87605,31.550146 7.20634,-26.154154 27.49765,-17.350335 33.88719,-33.108178 9.16541,13.189116 -11.62324,17.768735 12.03155,31.274728 14.19356,-17.93227 30.69367,-3.50918 44.83661,-10.241298 10.66094,-5.074666 -1.76706,-33.791947 28.82359,-32.329161 -8.62178,16.332791 -10.12149,18.76662 -6.23213,27.655066 2.92815,6.691757 35.00049,29.718473 5.45312,38.561293 5.60563,4.8388 18.88872,2.17375 24.40534,-0.87353 -0.61558,7.67567 -2.96986,7.76168 -8.84459,18.30688 8.53785,0.43454 15.92875,10.85982 27.76139,10.44382 15.49564,-0.54478 19.34603,-18.55066 39.28122,-12.02142 -30.12017,16.81911 2.70334,40.34072 -27.68274,62.82486 25.03614,0.77815 34.11351,13.18868 33.49769,27.65506 -26.42592,-4.3523 -36.00861,13.45526 -41.67736,28.82359 12.66948,-4.488 28.19426,0.89317 30.18688,10.71147 -24.05784,-1.58423 -24.10789,38.47195 -46.54621,38.75604 51.06686,35.02797 17.74817,68.70452 -3.11607,68.1639 10.1682,-35.50445 -28.42804,-17.35809 -37.78227,-25.31802 -2.09208,9.37784 12.43289,23.50934 6.23213,32.71867 -9.0096,-11.85405 -40.06633,10.16036 -52.58358,10.51672 4.00686,4.4774 12.07225,20.72505 -11.68524,28.23933 -1.55081,-16.18719 -15.07083,-12.8868 -24.92851,-14.60655 -2.60901,39.42763 -39.96584,47.07137 -63.10029,38.56129 38.72497,-26.7033 -16.14948,-33.08724 -17.13835,-52.19407 -8.73572,13.83164 -18.81273,16.81578 -27.26556,11.68524 13.40509,-11.73927 -4.85527,-17.48023 -2.33704,-31.16064 -13.75934,14.03954 -0.0878,25.36806 -34.27671,27.17105 28.49281,-23.03969 -32.92324,-36.81444 17.13835,-64.95332 -27.97855,0.22161 -21.27927,-12.91883 -32.71867,-13.24328 -12.00202,-0.34041 -14.16385,26.31285 -33.49768,13.24328 17.00191,-5.4481 -3.91857,-43.25211 35.44522,-46.74096 -20.28054,-12.08196 -20.6671,-12.11203 -27.26555,-24.1495 22.77274,8.57138 20.68529,-19.82097 35.83473,-17.91736 -0.68368,-6.1557 -4.41223,-14.13636 -10.51672,-15.96983 -6.62906,-1.99102 -9.93237,9.61708 -19.08589,8.17967 -7.89595,-4.42693 -10.69059,-11.05172 -3.89508,-26.87605 18.75865,21.50488 26.70958,-14.65259 42.06687,-12.85377 -22.85572,-1.77032 -21.86184,-7.44054 -27.46032,-18.69638 -9.09236,-24.99385 18.93089,-28.54135 -7.98491,-31.55014 3.57798,-7.95135 22.18115,-19.938 32.32916,-14.02229 5.30167,3.09057 -3.1918,14.95329 1.94754,18.30687 10.57987,2.10251 18.78375,-13.53873 35.44523,-11.29573 -31.70551,-12.44947 -21.62916,-44.78774 -6.62164,-57.257669 0.29127,19.818809 40.42798,0.195539 40.50883,16.359339 z"
       style="opacity:1;fill:#de6026;fill-opacity:1;stroke:#f5c389;stroke-width:3;stroke-linecap:round;stroke-linejoin:round;stroke-miterlimit:4;stroke-dasharray:none;stroke-opacity:1" />
    <path
       sodipodi:nodetypes="ccccccccccccccccccccccccccccccccccccccc"
       inkscape:connector-curvature="0"
       id="path4994"
       d="m 332.29762,183.47197 c -1.65254,-15.14831 -25.70753,-69.72193 -25.70753,-69.72193 25.31802,14.02229 47.51997,-1.55804 61.54226,47.13046 -10.51672,-34.2767 -18.30687,-52.58357 -20.25441,-60.37373 61.15275,22.20195 54.53111,54.14161 54.53111,54.14161 0,0 -9.34819,-42.06686 3.11607,-55.310136 27.26556,26.486546 15.96982,52.583576 15.96982,52.583576 19.4754,-65.43734 40.50883,-26.87605 63.87931,-49.46751 12.85376,14.4118 -38.17178,35.83473 -40.89834,64.26881 0,0 15.58032,-36.22424 54.53112,-24.539 -9.34819,30.38162 -26.48654,46.74096 -26.48654,46.74096 -0.27543,-49.02543 69.61931,-4.508 75.95405,-21.03343 0,11.29237 -27.02928,10.00501 -31.16064,14.41179 4.40678,-0.82627 29.90908,14.39223 38.17179,12.46426 -10.19068,11.01695 -55.69964,23.75998 -55.69964,23.75998 18.72881,-10.19068 42.45973,10.0327 53.47668,9.75727 -7.98729,11.01695 -22.85404,44.17575 -42.95997,45.55287 0,0 17.15318,7.83741 35.05572,7.01114 -6.88559,22.58475 -41.28785,24.539 -41.28785,24.539 25.88983,0 14.69868,20.17473 21.03343,39.72982 -19.55508,3.58051 -61.54226,-10.90623 -61.54226,-10.90623 0,0 18.47633,33.52872 13.24328,42.06686 -2.20339,-9.63983 -27.65507,-23.75998 -27.65507,-23.75998 0,0 -11.23701,33.87097 -5.45311,43.23538 -12.94492,-5.23305 -15.19081,-24.14949 -15.19081,-24.14949 -4.95763,38.83475 -20.95375,26.70185 -40.50883,47.90948 -6.61017,-19.83051 -29.89425,-17.9308 -20.25442,-63.10029 0,0 -26.93141,31.69527 -21.42294,40.50883 -15.42373,-15.97458 -0.51481,-52.09183 -0.51481,-52.09183 -7.43644,24.23729 -29.47035,23.41101 -49.02543,26.99152 12.39407,-11.01695 3.51507,-41.74696 3.51507,-41.74696 0,0 -21.72547,-1.62961 -40.42185,-26.55812 34.17941,7.57896 47.37288,-2.57062 71.05932,-3.85593 -48.6885,8.56918 -57.7769,-14.87289 -74.91525,-14.87289 6.33474,-7.98729 47.92373,-28.09322 47.92373,-28.09322 -26.99152,12.66949 -33.14871,-20.67401 -43.51695,-20.9322 15.72446,-21.46348 24.44554,-25.69506 53.4322,-18.72881 -10.19641,-40.06535 -48.56755,-6.94691 -53.98305,-41.31356 48.87416,-4.13471 78.20864,-18.41362 72.42474,7.75163 z"
       style="opacity:1;fill:#d34524;fill-opacity:1;stroke:none;stroke-width:1px;stroke-linecap:butt;stroke-linejoin:miter;stroke-opacity:1" />
    <circle
       r="128.34747"
       cy="259.44916"
       cx="404.19492"
       id="path4988"
       style="opacity:1;fill:#fded66;fill-opacity:1;stroke:none;stroke-width:2.0173161;stroke-linecap:square;stroke-linejoin:miter;stroke-miterlimit:4;stroke-dasharray:8.06926406, 8.06926406;stroke-dashoffset:0;stroke-opacity:0.40869565" />
    <circle
       style="opacity:1;fill:#f4af24;fill-opacity:1;stroke:none;stroke-width:1.90476203;stroke-linecap:square;stroke-linejoin:miter;stroke-miterlimit:4;stroke-dasharray:7.61904766, 7.61904766;stroke-dashoffset:0;stroke-opacity:0.40869565"
       id="circle4990"
       cx="408.35593"
       cy="266.61017"
       r="121.18645" />
  </g>
  <g
     id="g5140"
     transform="matrix(0.71436456,0,0,0.71436456,-434.58179,-204.15747)">
    <circle
       r="62.321278"
       cy="453.401"
       cx="847.56934"
       id="path5058"
       style="opacity:1;fill:#74b7e3;fill-opacity:1;stroke:none;stroke-width:3;stroke-linecap:round;stroke-linejoin:round;stroke-miterlimit:4;stroke-dasharray:none;stroke-dashoffset:0;stroke-opacity:1" />
    <path
       id="path5091"
       d="m 847.57031,391.08008 a 62.321278,62.321278 0 0 0 -12.15429,1.25781 l -0.31055,1.85742 -13.24414,26.09766 -20.64258,33.10742 -15.0957,10.33008 a 62.321278,62.321278 0 0 0 4.71484,15.2793 c 12.57287,-8.01045 30.52776,-22.65759 39.59375,-45.08399 12.71341,-31.44896 16.2419,-33.91001 21.91797,-42.60742 a 62.321278,62.321278 0 0 0 -4.7793,-0.23828 z"
       style="fill:#683b4f;fill-opacity:1;stroke:none;stroke-width:1px;stroke-linecap:butt;stroke-linejoin:miter;stroke-opacity:1"
       inkscape:connector-curvature="0" />
    <path
       id="path5069"
       d="m 847.57031,391.08008 a 62.321278,62.321278 0 0 0 -17.35351,2.49804 c -5.65532,15.09325 -18.8838,31.61898 -26.61524,42.14258 -5.32373,7.24637 -11.44862,16.00619 -18.05859,23.22657 a 62.321278,62.321278 0 0 0 4.37891,18.01562 c 6.88018,-4.8118 13.09434,-10.28943 18.08593,-14.80273 13.56914,-12.26895 14.97934,-20.98706 23.6875,-41.3125 3.3852,-7.90129 11.04931,-18.39759 17.89453,-29.66602 a 62.321278,62.321278 0 0 0 -2.01953,-0.10156 z"
       style="fill:#c95356;fill-opacity:1;stroke:none;stroke-width:1px;stroke-linecap:butt;stroke-linejoin:miter;stroke-opacity:1"
       inkscape:connector-curvature="0" />
    <path
       id="path5096"
       d="m 875.72852,397.87891 -13.92774,25.99804 -4.13086,15.28711 -4.82031,10.60352 -7.57422,4.68164 -21.48242,9.08984 -13.49609,22.58399 -6.9375,11.16015 a 62.321278,62.321278 0 0 0 12.0625,9.41992 c 2.82301,-9.76239 10.88427,-30.87043 13.05273,-33.80078 5.09534,-6.88559 23.59922,-8.52586 29.51172,-18.21875 5.23625,-8.58424 18.21641,-40.77308 23.99023,-53.19921 a 62.321278,62.321278 0 0 0 -6.24804,-3.60547 z"
       style="fill:#5d414f;fill-opacity:1;stroke:none;stroke-width:1px;stroke-linecap:butt;stroke-linejoin:miter;stroke-opacity:1"
       inkscape:connector-curvature="0" />
    <path
       id="path5098"
       d="m 856.68945,391.82812 -3.42578,19.6543 c 0,0 12.94389,21.48351 8.53711,12.39453 -3.33367,-6.87569 0.8893,-22.07372 3.625,-30.15625 a 62.321278,62.321278 0 0 0 -8.73633,-1.89258 z"
       style="fill:#573956;fill-opacity:1;stroke:none;stroke-width:1px;stroke-linecap:butt;stroke-linejoin:miter;stroke-opacity:1"
       inkscape:connector-curvature="0" />
    <path
       id="path5073"
       d="m 853.26953,391.36523 c -2.40693,7.80506 -2.20289,17.50137 -2.8457,22.32032 -2.51871,18.88175 7.59912,26.72751 1.10156,33.60351 -6.49756,6.876 -13.97919,-4.87789 -23.13477,0.55078 -9.15552,5.42867 -10.8108,24.73031 -20.38281,35.25391 -2.9402,3.2325 -5.78747,6.4544 -8.84765,9.51172 a 62.321278,62.321278 0 0 0 3.24218,3.69141 c 0.31009,0.32701 0.6244,0.65058 0.94141,0.9707 a 62.321278,62.321278 0 0 0 3.7207,3.4668 c 0.28038,0.24033 0.5669,0.47362 0.85157,0.70898 a 62.321278,62.321278 0 0 0 4.22656,3.21289 c 0.005,0.004 0.0103,0.008 0.0156,0.0117 6.52789,-13.29979 8.5108,-27.86165 15.13086,-34.79492 9.97393,-10.44581 14.03791,-5.46752 22.03321,-13.77149 7.9953,-8.30397 13.04075,-15.93311 21.48242,-37.45703 1.9741,-5.03341 4.77783,-11.76907 7.74414,-19.25976 -0.33311,-0.192 -0.73733,-0.45335 -1.10156,-0.67579 a 62.321278,62.321278 0 0 0 -0.002,-0.002 62.321278,62.321278 0 0 0 -4.67383,-2.25586 c -6.77718,7.56219 -13.51757,20.13142 -13.51757,20.91992 0,0.74524 1.04263,-12.34754 2.95117,-24.47265 a 62.321278,62.321278 0 0 0 -8.93555,-1.53321 z"
       style="fill:#dd5b39;fill-opacity:1;stroke:none;stroke-width:1px;stroke-linecap:butt;stroke-linejoin:miter;stroke-opacity:1"
       inkscape:connector-curvature="0" />
    <path
       id="path5100"
       d="m 896.74414,415.16211 c -4.57114,6.70078 -7.10742,10.97266 -7.10742,10.97266 l -18.69727,44.79492 -10.12695,31.93945 c 0,0 2.11956,3.61859 4.76953,10.13672 a 62.321278,62.321278 0 0 0 16.12305,-7.49609 c 0.9123,-5.47627 1.34409,-10.65021 0.91992,-13.9375 -1.55803,-12.07474 -3.1152,-29.603 10.51758,-47.13086 4.12692,-5.30604 6.85471,-13.18409 8.66211,-21.58789 a 62.321278,62.321278 0 0 0 -5.06055,-7.69141 z"
       style="fill:#553154;fill-opacity:1;stroke:none;stroke-width:1px;stroke-linecap:butt;stroke-linejoin:miter;stroke-opacity:1"
       inkscape:connector-curvature="0" />
    <path
       id="path5077"
       d="m 886.66406,404.93164 c -4.34176,19.27305 -4.58698,37.83154 -13.10547,49.51758 -9.256,12.6978 -25.39036,6.469 -31.94921,20.38086 -5.0212,10.65033 8.75508,26.00043 9.94726,40.75195 a 62.321278,62.321278 0 0 0 21.13281,-5.23047 c 2.05431,-4.97107 2.52296,-9.25463 3.625,-14.03711 2.19165,-9.51099 -3.2929,-8.39034 -0.55078,-22.58593 2.53969,-13.14763 16.42894,-36.75461 23.7168,-54.74219 a 62.321278,62.321278 0 0 0 -12.81641,-14.05469 z"
       style="fill:#c8595a;fill-opacity:1;stroke:none;stroke-width:1px;stroke-linecap:butt;stroke-linejoin:miter;stroke-opacity:1"
       inkscape:connector-curvature="0" />
    <path
       inkscape:connector-curvature="0"
       id="circle5064"
       d="m 847.57031,391.08008 a 62.321278,62.321278 0 0 0 -62.32226,62.32031 62.321278,62.321278 0 0 0 62.32226,62.32227 62.321278,62.321278 0 0 0 62.32029,-62.32227 62.321278,62.321278 0 0 0 -62.32029,-62.32031 z m -2.72656,5.45312 a 54.141609,54.141609 0 0 1 54.14065,54.14063 54.141609,54.141609 0 0 1 -54.14065,54.14258 54.141609,54.141609 0 0 1 -54.14258,-54.14258 54.141609,54.141609 0 0 1 54.14258,-54.14063 z"
       style="opacity:1;fill:#000000;fill-opacity:0.2956522;stroke:none;stroke-width:3;stroke-linecap:round;stroke-linejoin:round;stroke-miterlimit:4;stroke-dasharray:none;stroke-dashoffset:0;stroke-opacity:1" />
  </g>
</svg>
